Project 1: Exploratory Data Analysis
…
final <- truejoined %>% mutate(cluster = as.factor(pam2$clustering))

confmat <- final %>% group_by(State, Year) %>% count(cluster) %>% 
    arrange(desc(n)) %>% pivot_wider(names_from = "cluster", 
    values_from = "n", values_fill = list(n = 0))

confmat

## # A tibble: 200 x 5
## # Groups:   State, Year [200]
##    State    Year   `2`   `1`   `3`
##    <chr>   <dbl> <int> <int> <int>
##  1 Alabama  2015     1     0     0
##  2 Alabama  2016     1     0     0
##  3 Alabama  2017     1     0     0
##  4 Alabama  2018     1     0     0
##  5 Alaska   2015     0     1     0
##  6 Alaska   2016     0     1     0
##  7 Alaska   2017     0     1     0
##  8 Alaska   2018     0     1     0
##  9 Arizona  2015     1     0     0
## 10 Arizona  2016     1     0     0
## # … with 190 more rows
…
